<?xml version="1.0" encoding="utf-8"?>
<!-- Generator: Adobe Illustrator 19.1.0, SVG Export Plug-In . SVG Version: 6.00 Build 0)  -->
<!DOCTYPE svg PUBLIC "-//W3C//DTD SVG 1.1//EN" "http://www.w3.org/Graphics/SVG/1.1/DTD/svg11.dtd">
<svg version="1.1" id="Layer_1" xmlns="http://www.w3.org/2000/svg" xmlns:xlink="http://www.w3.org/1999/xlink" x="0px" y="0px"
	 width="100px" height="100px" viewBox="0 0 100 100" style="enable-background:new 0 0 100 100;" xml:space="preserve">
<style type="text/css">
	.st0{fill:#063342;}
	.st1{fill:none;stroke:#FFFFFF;stroke-width:4;stroke-miterlimit:10;}
</style>
<g>
	<path class="st0" d="M51.1,76.7c0,0-0.9-0.8-1.2-1c-0.2-0.2,0.1-0.8,0.1-0.8h0c0.4-0.6,0.7-1.2,1-1.9h0c0,0,0.4-0.6,0.6-0.5
		c0.3,0.1,1.5,0.5,1.5,0.5c0.3,0.1,0.7-0.1,0.8-0.4l0.7-2.1c0.1-0.3-0.1-0.7-0.4-0.8c0,0-1.2-0.4-1.5-0.5c-0.3-0.1-0.3-0.8-0.3-0.8
		l0,0c0.1-0.7,0.2-1.4,0.2-2.1c0,0,0.1-0.7,0.4-0.7c0.3,0,1.5-0.1,1.5-0.1c0.3,0,0.6-0.3,0.6-0.7L55,62.8c0-0.3-0.3-0.6-0.7-0.6
		c0,0-1.2,0.1-1.5,0.1c-0.3,0-0.5-0.6-0.5-0.6h0c-0.2-0.7-0.4-1.4-0.6-2.1l0,0c0,0-0.2-0.7,0.1-0.8c0.3-0.1,1.4-0.7,1.4-0.7
		c0.3-0.2,0.4-0.5,0.3-0.8l-1-1.9c-0.2-0.3-0.5-0.4-0.8-0.3c0,0-1.1,0.6-1.4,0.7c-0.3,0.1-0.7-0.4-0.7-0.4l0,0
		c-0.4-0.6-0.9-1.1-1.3-1.7h0c0,0-0.4-0.6-0.2-0.8c0.2-0.2,1-1.2,1-1.2c0.2-0.3,0.2-0.6-0.1-0.9l-1.7-1.4c-0.3-0.2-0.7-0.2-0.9,0.1
		c0,0-0.8,0.9-1,1.2c-0.2,0.2-0.8-0.1-0.8-0.1c-0.6-0.4-1.2-0.7-1.9-1l0,0c0,0-0.6-0.4-0.5-0.6c0.1-0.3,0.5-1.5,0.5-1.5
		c0.1-0.3-0.1-0.7-0.4-0.8l-2.1-0.7c-0.3-0.1-0.7,0.1-0.8,0.4c0,0-0.4,1.2-0.5,1.5c-0.1,0.3-0.8,0.2-0.8,0.2v0
		c-0.7-0.1-1.4-0.2-2.1-0.2c0,0-0.7-0.1-0.7-0.4c0-0.3-0.1-1.5-0.1-1.5c0-0.3-0.3-0.6-0.7-0.6l-2.2,0.2c-0.3,0-0.6,0.3-0.6,0.7
		c0,0,0.1,1.2,0.1,1.5c0,0.3-0.6,0.5-0.6,0.5v0c-0.7,0.2-1.4,0.4-2.1,0.6l0,0c0,0-0.7,0.2-0.8-0.1c-0.1-0.3-0.7-1.4-0.7-1.4
		c-0.2-0.3-0.5-0.4-0.8-0.3l-1.9,1c-0.3,0.2-0.4,0.5-0.3,0.8c0,0,0.6,1.1,0.7,1.4c0.1,0.3-0.4,0.7-0.4,0.7l0,0
		c-0.6,0.4-1.1,0.9-1.7,1.3h0c0,0-0.6,0.4-0.8,0.2c-0.2-0.2-1.2-1-1.2-1c-0.3-0.2-0.7-0.2-0.9,0.1l-1.4,1.7
		c-0.2,0.3-0.2,0.7,0.1,0.9c0,0,0.9,0.8,1.2,1c0.2,0.2-0.1,0.8-0.1,0.8c-0.4,0.6-0.7,1.2-1,1.9h0c0,0-0.4,0.6-0.6,0.5
		c-0.3-0.1-1.5-0.5-1.5-0.5c-0.3-0.1-0.7,0.1-0.8,0.4l-0.7,2.1c-0.1,0.3,0.1,0.7,0.4,0.8c0,0,1.2,0.4,1.5,0.5
		c0.3,0.1,0.3,0.8,0.3,0.8h0c-0.1,0.7-0.2,1.4-0.2,2.1c0,0-0.1,0.7-0.4,0.7c-0.3,0-1.5,0.1-1.5,0.1c-0.3,0-0.6,0.3-0.6,0.7l0.2,2.2
		c0,0.3,0.3,0.6,0.7,0.6c0,0,1.2-0.1,1.5-0.1c0.3,0,0.5,0.6,0.5,0.6h0c0.2,0.7,0.4,1.4,0.6,2.1l0,0c0,0,0.2,0.7-0.1,0.8
		c-0.3,0.1-1.4,0.7-1.4,0.7c-0.3,0.2-0.4,0.5-0.3,0.8l1,1.9c0.2,0.3,0.5,0.4,0.8,0.3c0,0,1.1-0.6,1.4-0.7c0.3-0.1,0.7,0.4,0.7,0.4h0
		c0.4,0.6,0.9,1.1,1.3,1.7l0,0c0,0,0.4,0.6,0.2,0.8c-0.2,0.2-1,1.2-1,1.2c-0.2,0.3-0.2,0.6,0.1,0.9l1.7,1.4c0.3,0.2,0.7,0.2,0.9-0.1
		c0,0,0.8-0.9,1-1.2c0.2-0.2,0.8,0.1,0.8,0.1c0.6,0.4,1.2,0.7,1.9,1v0c0,0,0.6,0.4,0.5,0.6c-0.1,0.3-0.5,1.5-0.5,1.5
		c-0.1,0.3,0.1,0.7,0.4,0.8l2.1,0.7c0.3,0.1,0.7-0.1,0.8-0.4c0,0,0.4-1.2,0.5-1.5c0.1-0.3,0.8-0.3,0.8-0.3l0,0
		c0.7,0.1,1.4,0.2,2.1,0.2c0,0,0.7,0.1,0.7,0.4c0,0.3,0.1,1.5,0.1,1.5c0,0.3,0.3,0.6,0.7,0.6l2.2-0.2c0.3,0,0.6-0.3,0.6-0.7
		c0,0-0.1-1.2-0.1-1.5c0-0.3,0.6-0.5,0.6-0.5v0c0.7-0.2,1.4-0.4,2-0.6h0c0,0,0.7-0.1,0.8,0.1c0.1,0.3,0.7,1.4,0.7,1.4
		c0.2,0.3,0.5,0.4,0.8,0.3l1.9-1c0.3-0.2,0.4-0.5,0.3-0.8c0,0-0.6-1.1-0.7-1.4c-0.1-0.3,0.4-0.7,0.4-0.7v0c0.6-0.4,1.1-0.9,1.7-1.3
		l0,0c0,0,0.6-0.4,0.8-0.2c0.2,0.2,1.2,1,1.2,1c0.3,0.2,0.7,0.2,0.9-0.1l1.4-1.7C51.4,77.3,51.3,76.9,51.1,76.7 M40.5,51.9
		c4.4,1.7,7.5,5.3,8.8,9.6l-10.7,2.4c-0.3-0.6-0.8-1.1-1.4-1.5L40.5,51.9z M37.5,66.3c-0.4,1.3-1.8,2-3,1.6c-1.3-0.4-2-1.8-1.6-3
		c0.4-1.3,1.8-2,3-1.6C37.2,63.7,37.9,65,37.5,66.3 M38.7,51.3l-3.3,10.5c-0.7,0-1.4,0.1-2,0.4L26,54.1
		C29.5,51.3,34.1,50.2,38.7,51.3 M20.6,67.8c-0.3-2.2-0.2-4.4,0.5-6.6c0.7-2.2,1.9-4.2,3.4-5.7l7.4,8.1c-0.2,0.3-0.3,0.6-0.4,0.9
		c-0.1,0.3-0.2,0.7-0.2,1L20.6,67.8z M29.8,79.2c-4.4-1.7-7.5-5.3-8.8-9.6l10.7-2.4c0.3,0.6,0.8,1.1,1.4,1.5L29.8,79.2z M31.7,79.8
		L35,69.4c0.7,0,1.4-0.1,2-0.4l7.4,8.1C40.9,79.8,36.2,80.9,31.7,79.8 M49.2,70c-0.7,2.2-1.9,4.2-3.4,5.7l-7.4-8.1
		c0.2-0.3,0.3-0.6,0.4-0.9c0.1-0.3,0.2-0.7,0.2-1l10.7-2.4C50,65.5,49.9,67.8,49.2,70"/>
	<path class="st0" d="M35.2,63.8c-1,0-1.8,0.8-1.8,1.8c0,1,0.8,1.8,1.8,1.8c1,0,1.8-0.8,1.8-1.8C37,64.6,36.2,63.8,35.2,63.8"/>
	<path class="st0" d="M68.2,82.9c0,0-0.6,0-0.7,0.1c-0.1,0-0.2-0.3-0.2-0.3h0c-0.1-0.3-0.2-0.6-0.3-1h0c0,0-0.1-0.3,0.1-0.4
		c0.1-0.1,0.6-0.3,0.6-0.3c0.1-0.1,0.2-0.2,0.1-0.4l-0.5-0.9c-0.1-0.1-0.3-0.2-0.4-0.1c0,0-0.5,0.3-0.6,0.3C66.2,80,66,79.8,66,79.8
		h0c-0.2-0.3-0.4-0.5-0.6-0.8l0,0c0,0-0.2-0.3-0.1-0.4c0.1-0.1,0.5-0.5,0.5-0.5c0.1-0.1,0.1-0.3,0-0.4L64.9,77
		c-0.1-0.1-0.3-0.1-0.4,0c0,0-0.4,0.4-0.5,0.5c-0.1,0.1-0.4,0-0.4,0c-0.3-0.2-0.6-0.3-0.9-0.5c0,0-0.3-0.2-0.2-0.3
		c0-0.1,0.2-0.7,0.2-0.7c0-0.2,0-0.3-0.2-0.4l-1-0.3c-0.2,0-0.3,0-0.4,0.2c0,0-0.2,0.6-0.2,0.7s-0.4,0.1-0.4,0.1
		c-0.3-0.1-0.7-0.1-1-0.1c0,0-0.3-0.1-0.3-0.2c0-0.1-0.1-0.7-0.1-0.7c0-0.2-0.2-0.3-0.3-0.3l-1,0.1c-0.2,0-0.3,0.2-0.3,0.3
		c0,0,0,0.6,0.1,0.7c0,0.1-0.3,0.2-0.3,0.2v0c-0.3,0.1-0.7,0.2-1,0.3l0,0c0,0-0.3,0.1-0.4-0.1c-0.1-0.1-0.3-0.6-0.3-0.6
		c-0.1-0.1-0.3-0.2-0.4-0.1l-0.9,0.5c-0.1,0.1-0.2,0.2-0.1,0.4c0,0,0.3,0.5,0.3,0.6c0.1,0.1-0.2,0.3-0.2,0.3
		c-0.3,0.2-0.5,0.4-0.8,0.6h0c0,0-0.3,0.2-0.4,0.1c-0.1-0.1-0.5-0.5-0.5-0.5c-0.1-0.1-0.3-0.1-0.4,0l-0.7,0.8
		c-0.1,0.1-0.1,0.3,0,0.4c0,0,0.4,0.4,0.5,0.5c0.1,0.1,0,0.4,0,0.4c-0.2,0.3-0.3,0.6-0.5,0.9h0c0,0-0.2,0.3-0.3,0.2
		c-0.1,0-0.7-0.2-0.7-0.2c-0.2,0-0.3,0-0.4,0.2l-0.3,1c0,0.2,0,0.3,0.2,0.4c0,0,0.5,0.2,0.7,0.2c0.1,0,0.1,0.4,0.1,0.4h0
		c-0.1,0.3-0.1,0.7-0.1,1c0,0-0.1,0.3-0.2,0.3c-0.1,0-0.7,0.1-0.7,0.1c-0.2,0-0.3,0.2-0.3,0.3l0.1,1c0,0.2,0.2,0.3,0.3,0.3
		c0,0,0.6,0,0.7-0.1c0.1,0,0.2,0.3,0.2,0.3h0c0.1,0.3,0.2,0.6,0.3,1l0,0c0,0,0.1,0.3-0.1,0.4c-0.1,0.1-0.6,0.3-0.6,0.3
		c-0.1,0.1-0.2,0.3-0.1,0.4l0.5,0.9c0.1,0.1,0.2,0.2,0.4,0.1c0,0,0.5-0.3,0.6-0.3c0.1-0.1,0.3,0.2,0.3,0.2h0
		c0.2,0.3,0.4,0.5,0.6,0.8h0c0,0,0.2,0.3,0.1,0.4c-0.1,0.1-0.5,0.5-0.5,0.5c-0.1,0.1-0.1,0.3,0,0.4l0.8,0.7c0.1,0.1,0.3,0.1,0.4,0
		c0,0,0.4-0.4,0.5-0.5c0.1-0.1,0.4,0,0.4,0c0.3,0.2,0.6,0.3,0.9,0.5v0c0,0,0.3,0.2,0.2,0.3c0,0.1-0.2,0.7-0.2,0.7
		c0,0.2,0,0.3,0.2,0.4l1,0.3c0.2,0,0.3,0,0.4-0.2c0,0,0.2-0.5,0.2-0.7c0-0.1,0.4-0.1,0.4-0.1l0,0c0.3,0.1,0.7,0.1,1,0.1
		c0,0,0.3,0.1,0.3,0.2c0,0.1,0.1,0.7,0.1,0.7c0,0.2,0.2,0.3,0.3,0.3l1-0.1c0.2,0,0.3-0.2,0.3-0.3c0,0-0.1-0.6-0.1-0.7
		c0-0.1,0.3-0.2,0.3-0.2c0.3-0.1,0.6-0.2,1-0.3l0,0c0,0,0.3-0.1,0.4,0.1c0.1,0.1,0.3,0.6,0.3,0.6c0.1,0.1,0.2,0.2,0.4,0.1l0.9-0.5
		c0.1-0.1,0.2-0.3,0.1-0.4c0,0-0.3-0.5-0.3-0.6c-0.1-0.1,0.2-0.3,0.2-0.3c0.3-0.2,0.5-0.4,0.8-0.6c0,0,0.3-0.2,0.4-0.1
		c0.1,0.1,0.5,0.5,0.5,0.5c0.1,0.1,0.3,0.1,0.4,0l0.7-0.8c0.1-0.1,0.1-0.3,0-0.4c0,0-0.4-0.4-0.5-0.5c-0.1-0.1,0-0.4,0-0.4h0
		c0.2-0.3,0.3-0.6,0.5-0.9l0,0c0,0,0.2-0.3,0.3-0.2c0.1,0,0.7,0.2,0.7,0.2c0.2,0.1,0.3,0,0.4-0.2l0.3-1c0-0.2,0-0.3-0.2-0.4
		c0,0-0.5-0.2-0.7-0.2c-0.1,0-0.1-0.4-0.1-0.4l0,0c0.1-0.3,0.1-0.7,0.1-1c0,0,0.1-0.3,0.2-0.3c0.1,0,0.7-0.1,0.7-0.1
		c0.2,0,0.3-0.2,0.3-0.3l-0.1-1C68.5,83,68.4,82.9,68.2,82.9 M61.8,78.1c2.1,0.8,3.5,2.5,4.1,4.5l-5,1.1c-0.1-0.3-0.4-0.5-0.6-0.7
		L61.8,78.1z M60.3,84.9c-0.2,0.6-0.8,0.9-1.4,0.7c-0.6-0.2-0.9-0.8-0.7-1.4c0.2-0.6,0.8-0.9,1.4-0.7C60.2,83.6,60.5,84.3,60.3,84.9
		 M60.9,77.8l-1.6,4.9c-0.3,0-0.6,0.1-0.9,0.2l-3.5-3.8C56.6,77.8,58.7,77.3,60.9,77.8 M52.4,85.5c-0.2-1-0.1-2.1,0.2-3.1
		c0.3-1,0.9-2,1.6-2.7l3.5,3.8c-0.1,0.1-0.2,0.3-0.2,0.4c-0.1,0.2-0.1,0.3-0.1,0.5L52.4,85.5z M56.7,90.9c-2.1-0.8-3.5-2.5-4.1-4.5
		l5-1.1c0.1,0.3,0.4,0.5,0.6,0.7L56.7,90.9z M57.6,91.2l1.6-4.9c0.3,0,0.6-0.1,0.9-0.2l3.5,3.8C61.9,91.2,59.7,91.7,57.6,91.2
		 M65.8,86.6c-0.3,1-0.9,2-1.6,2.7l-3.5-3.8c0.1-0.1,0.2-0.3,0.2-0.4c0-0.2,0.1-0.3,0.1-0.5l5-1.1C66.2,84.5,66.1,85.6,65.8,86.6"/>
	<path class="st0" d="M59.2,83.7c-0.5,0-0.8,0.4-0.8,0.8c0,0.5,0.4,0.8,0.8,0.8c0.5,0,0.8-0.4,0.8-0.8C60.1,84,59.7,83.7,59.2,83.7"
		/>
	<path class="st0" d="M58.6,64.3c0,0,0,0.5-0.2,0.5c-0.2,0.1-2.1,0.5-2.1,0.5c-0.2,0.1-0.4,0.3-0.3,0.5l0.3,1.4
		c0.1,0.2,0.3,0.4,0.5,0.3c0,0,1.9-0.5,2.1-0.5c0.2,0,0.4,0.3,0.4,0.3l0,0c0.2,0.5,0.5,1.1,0.7,1.6l0,0c0,0,0.2,0.4,0,0.5
		c-0.2,0.1-1.7,1.3-1.7,1.3c-0.2,0.1-0.2,0.4-0.1,0.6l0.9,1.1c0.1,0.2,0.4,0.2,0.6,0.1c0,0,1.6-1.2,1.7-1.3c0.2-0.1,0.5,0.2,0.5,0.2
		l0,0c0.4,0.4,0.8,0.8,1.3,1.1l0,0c0,0,0.3,0.3,0.2,0.5c-0.1,0.2-1,1.9-1,1.9c-0.1,0.2,0,0.4,0.2,0.6l1.3,0.7c0.2,0.1,0.5,0,0.6-0.2
		c0,0,0.9-1.8,1-1.9c0.1-0.2,0.5-0.1,0.5-0.1c0.5,0.2,1.1,0.4,1.7,0.5v0c0,0,0.4,0.1,0.4,0.3c0,0.2-0.2,2.2-0.2,2.2
		c0,0.2,0.2,0.4,0.4,0.4l1.4,0.1c0.2,0,0.4-0.2,0.4-0.4c0,0,0.1-2,0.2-2.2c0-0.2,0.5-0.3,0.5-0.3l0,0c0.3,0,0.6,0,0.9-0.1
		c0.3,0,0.6-0.1,0.9-0.2l0,0c0,0,0.4,0,0.5,0.1c0.1,0.2,0.7,2.1,0.7,2.1c0.1,0.2,0.3,0.3,0.5,0.2l1.4-0.5c0.2-0.1,0.3-0.3,0.2-0.5
		c0,0-0.7-1.9-0.7-2.1c-0.1-0.2,0.3-0.4,0.3-0.4l0,0c0.5-0.3,1-0.6,1.5-0.9h0c0,0,0.4-0.2,0.5-0.1c0.1,0.1,1.5,1.6,1.5,1.6
		c0.2,0.2,0.4,0.2,0.6,0l1-1c0.2-0.2,0.2-0.4,0-0.6c0,0-1.4-1.4-1.5-1.6c-0.1-0.1,0.1-0.5,0.1-0.5l0,0c0.4-0.5,0.7-0.9,1-1.4l0,0
		c0,0,0.3-0.4,0.5-0.3c0.2,0.1,2,0.8,2,0.8c0.2,0.1,0.5,0,0.5-0.2l0.5-1.3c0.1-0.2,0-0.4-0.2-0.5c0,0-1.8-0.8-2-0.8
		c-0.2-0.1-0.1-0.5-0.1-0.5l0,0c0.1-0.6,0.2-1.1,0.3-1.7l0,0c0,0,0.1-0.4,0.3-0.4c0.2,0,2.2-0.1,2.2-0.1c0.2,0,0.4-0.2,0.4-0.4
		l0-1.5c0-0.2-0.2-0.4-0.4-0.4c0,0-2,0.1-2.2,0.1c-0.2,0-0.3-0.4-0.3-0.4l0,0c-0.1-0.6-0.2-1.1-0.4-1.7l0,0c0,0-0.1-0.4,0.1-0.5
		c0.2-0.1,2-1,2-1c0.2-0.1,0.3-0.3,0.2-0.5l-0.6-1.3c-0.1-0.2-0.3-0.3-0.5-0.2c0,0-1.8,0.9-2,1c-0.2,0.1-0.5-0.3-0.5-0.3l0,0
		c-0.3-0.5-0.7-0.9-1.1-1.4l0,0c0,0-0.3-0.4-0.1-0.5c0.1-0.2,1.4-1.7,1.4-1.7c0.1-0.2,0.1-0.4,0-0.6L79,51.6c-0.2-0.1-0.4-0.1-0.6,0
		c0,0-1.3,1.5-1.4,1.7c-0.1,0.2-0.5,0-0.5,0l0,0c-0.5-0.3-1-0.6-1.5-0.8l0,0c0,0-0.4-0.2-0.3-0.4c0.1-0.2,0.6-2.1,0.6-2.1
		c0.1-0.2-0.1-0.4-0.3-0.5L73.5,49c-0.2-0.1-0.4,0.1-0.5,0.3c0,0-0.6,1.9-0.6,2.1c-0.1,0.2-0.5,0.2-0.5,0.2l0,0
		c-0.6-0.1-1.1-0.1-1.7-0.1l0,0c0,0-0.4-0.1-0.5-0.3c0-0.2-0.3-2.2-0.3-2.2c0-0.2-0.2-0.4-0.5-0.4l-1.4,0.2c-0.2,0-0.4,0.2-0.4,0.5
		c0,0,0.3,2,0.3,2.2c0,0.2-0.4,0.4-0.4,0.4l0,0c-0.6,0.2-1.1,0.3-1.6,0.6l0,0c0,0-0.4,0.1-0.5,0c-0.1-0.2-1.2-1.9-1.2-1.9
		c-0.1-0.2-0.4-0.3-0.6-0.1l-1.2,0.8c-0.2,0.1-0.3,0.4-0.1,0.6c0,0,1.1,1.7,1.2,1.9c0.1,0.2-0.2,0.5-0.2,0.5l0,0
		c-0.4,0.4-0.9,0.8-1.2,1.2l0,0c0,0-0.3,0.3-0.5,0.2c-0.2-0.1-1.8-1.2-1.8-1.2c-0.2-0.1-0.4-0.1-0.6,0.1l-0.8,1.2
		c-0.1,0.2-0.1,0.4,0.1,0.6c0,0,1.6,1.1,1.8,1.2c0.2,0.1,0,0.5,0,0.5h0c-0.3,0.5-0.5,1-0.6,1.6l0,0c0,0-0.2,0.4-0.4,0.4
		c-0.2,0-2.2-0.4-2.2-0.4c-0.2,0-0.4,0.1-0.5,0.3l-0.3,1.4c0,0.2,0.1,0.4,0.3,0.5c0,0,2,0.4,2.2,0.4c0.2,0,0.2,0.5,0.2,0.5l0,0
		C58.5,63.2,58.5,63.8,58.6,64.3L58.6,64.3z M69.2,55.2c4.5-0.6,8.7,2.6,9.3,7.1c0.6,4.5-2.6,8.7-7.1,9.3c-4.5,0.6-8.7-2.6-9.3-7.1
		C61.5,59.9,64.7,55.8,69.2,55.2"/>
	<path class="st0" d="M59.7,23c9.6-7.3,23.2-1.4,24.7,10.1c1.6,0.4,3.2,0.6,4.7,1.1c6.7,2.3,10.5,10.1,8.2,16.8
		c-1.9,5.6-6.5,9.1-12.3,9.4c-1,0.1-2.1,0.1-3.1,0.1c-21.5,0-43,0-64.5,0c-4.3,0-8.1-1.3-11-4.6c-2.6-2.9-3.8-6.3-3.4-10.2
		c0.4-4.3,2.4-7.7,6-10.1c1.1-0.7,2.3-1.2,3.5-1.6c0.7-0.3,0.8-0.6,0.8-1.3c0-2.4-0.1-4.7,0.2-7.1c0.5-3.5,1.9-6.6,4-9.5
		c2.5-3.6,5.8-6.2,9.8-8c4.3-1.9,8.8-2.4,13.4-1.7c5.2,0.8,9.6,3.2,13.2,7c2.5,2.6,4.3,5.6,5.4,9C59.5,22.6,59.6,22.8,59.7,23"/>
	<path class="st1" d="M59.7,23c9.6-7.3,23.2-1.4,24.7,10.1c1.6,0.4,3.2,0.6,4.7,1.1c6.7,2.3,10.5,10.1,8.2,16.8
		c-1.9,5.6-6.5,9.1-12.3,9.4c-1,0.1-2.1,0.1-3.1,0.1c-21.5,0-43,0-64.5,0c-4.3,0-8.1-1.3-11-4.6c-2.6-2.9-3.8-6.3-3.4-10.2
		c0.4-4.3,2.4-7.7,6-10.1c1.1-0.7,2.3-1.2,3.5-1.6c0.7-0.3,0.8-0.6,0.8-1.3c0-2.4-0.1-4.7,0.2-7.1c0.5-3.5,1.9-6.6,4-9.5
		c2.5-3.6,5.8-6.2,9.8-8c4.3-1.9,8.8-2.4,13.4-1.7c5.2,0.8,9.6,3.2,13.2,7c2.5,2.6,4.3,5.6,5.4,9C59.5,22.6,59.6,22.8,59.7,23z"/>
</g>
</svg>
